Statistical Analysis of Mail-in Voting Demographics
…
`summarise()` has grouped output by 'Sex'. You can override using the `.groups`
argument.

# A tibble: 4 × 3
# Groups:   Sex [2]
  Sex   Voting_Method mean_NRA_Thermometer_Rating
  <chr> <chr>                               <dbl>
1 F     By Mail                              42.2
2 F     In-Person                            54.9
3 M     By Mail                              44.1
4 M     In-Person                            57.9

# A tibble: 8,280 × 3
   Thermometer_Rating   Sex Voting_Method
                <dbl> <dbl>         <dbl>
 1                 50     1            -1
 2                 50     2            -1
 3                  0     2            -1
 4                999     1            -1
 5                 70     1            -1
 6                 15     2            -1
 7                 85     2            -1
 8                 50     2            -1
 9                999     2             2
10                 50     1            -1
# … with 8,270 more rows
…
